EESchema Schematic File Version 4
EELAYER 29 0
EELAYER END
$Descr USLetter 11000 8500
encoding utf-8
Sheet 1 3
Title "little smartwatch"
Date "2019-07-11"
Rev "1"
Comp "engineeringvirtue"
Comment1 ""
Comment2 ""
Comment3 ""
Comment4 ""
$EndDescr
Text Label 7900 3050 0    50   ~ 0
D+
Text Label 7900 3150 0    50   ~ 0
D-
$Comp
L Regulator_Linear:TC1014 U5
U 1 1 5D411CE3
P 9050 2950
F 0 "U5" H 9075 3315 50  0000 C CNN
F 1 "TC1014" H 9075 3224 50  0000 C CNN
F 2 "Package_TO_SOT_SMD:SOT-23-5" H 9050 3250 50  0001 C CNN
F 3 "" H 9050 3250 50  0001 C CNN
	1    9050 2950
	1    0    0    -1  
$EndComp
$Comp
L power:GND #PWR031
U 1 1 5D42BD87
P 8500 3350
F 0 "#PWR031" H 8500 3100 50  0001 C CNN
F 1 "GND" H 8505 3177 50  0000 C CNN
F 2 "" H 8500 3350 50  0001 C CNN
F 3 "" H 8500 3350 50  0001 C CNN
	1    8500 3350
	1    0    0    -1  
$EndComp
NoConn ~ 9550 3050
$Comp
L Device:C C16
U 1 1 5D42FC93
P 9750 3100
F 0 "C16" H 9865 3146 50  0000 L CNN
F 1 "10uF" H 9865 3055 50  0000 L CNN
F 2 "Capacitor_SMD:C_0402_1005Metric" H 9788 2950 50  0001 C CNN
F 3 "~" H 9750 3100 50  0001 C CNN
	1    9750 3100
	1    0    0    -1  
$EndComp
$Comp
L power:GND #PWR035
U 1 1 5D432313
P 9750 3350
F 0 "#PWR035" H 9750 3100 50  0001 C CNN
F 1 "GND" H 9755 3177 50  0000 C CNN
F 2 "" H 9750 3350 50  0001 C CNN
F 3 "" H 9750 3350 50  0001 C CNN
	1    9750 3350
	1    0    0    -1  
$EndComp
$Comp
L power:+3.3V #PWR034
U 1 1 5D55C477
P 9750 2650
F 0 "#PWR034" H 9750 2500 50  0001 C CNN
F 1 "+3.3V" H 9765 2823 50  0000 C CNN
F 2 "" H 9750 2650 50  0001 C CNN
F 3 "" H 9750 2650 50  0001 C CNN
	1    9750 2650
	1    0    0    -1  
$EndComp
Text Label 1500 6800 2    50   ~ 0
SWDIO
Text Label 4450 3000 0    50   ~ 0
CHRG
$Comp
L Device:Crystal Y1
U 1 1 5D7AE033
P 1450 5100
AR Path="/5D7AE033" Ref="Y1"  Part="1" 
AR Path="/5D76ED37/5D7AE033" Ref="Y?"  Part="1" 
F 0 "Y1" H 1450 5458 50  0000 C CNN
F 1 "32MHz" H 1450 5367 50  0000 C CNN
F 2 "Crystal:Crystal_SMD_SeikoEpson_TSX3225-4Pin_3.2x2.5mm_HandSoldering" H 1450 5100 50  0001 C CNN
F 3 "https://support.epson.biz/td/api/doc_check.php?dl=brief_TSX-3225&lang=en" H 1450 5100 50  0001 C CNN
F 4 "Epson TSX-3225" H 1450 5276 50  0000 C CNN "Field4"
	1    1450 5100
	1    0    0    -1  
$EndComp
Text Label 4500 4200 0    50   ~ 0
RXD
Text Label 4500 4300 0    50   ~ 0
TXD
$Comp
L Device:R R12
U 1 1 5D7D234F
P 9250 6350
AR Path="/5D7D234F" Ref="R12"  Part="1" 
AR Path="/5D76ED37/5D7D234F" Ref="R?"  Part="1" 
F 0 "R12" V 9043 6350 50  0000 C CNN
F 1 "470" V 9134 6350 50  0000 C CNN
F 2 "Resistor_SMD:R_0402_1005Metric" V 9180 6350 50  0001 C CNN
F 3 "~" H 9250 6350 50  0001 C CNN
	1    9250 6350
	0    1    1    0   
$EndComp
Text Label 9100 6350 2    50   ~ 0
RXD
Text Label 1500 6700 2    50   ~ 0
SWCLK
Text Label 1500 6600 2    50   ~ 0
NRESET
NoConn ~ 7500 3450
$Comp
L power:GND #PWR025
U 1 1 5D270EB0
P 7600 3450
F 0 "#PWR025" H 7600 3200 50  0001 C CNN
F 1 "GND" V 7605 3322 50  0000 R CNN
F 2 "" H 7600 3450 50  0001 C CNN
F 3 "" H 7600 3450 50  0001 C CNN
	1    7600 3450
	1    0    0    -1  
$EndComp
NoConn ~ 7900 3250
$Comp
L Connector:USB_B_Micro J1
U 1 1 5D268F33
P 7600 3050
F 0 "J1" V 7703 3380 50  0000 L CNN
F 1 "USB_B_Micro" V 7612 3380 50  0000 L CNN
F 2 "Connector_USB:USB_Micro-B_Amphenol_10103594-0001LF_Horizontal" H 7750 3000 50  0001 C CNN
F 3 "~" H 7750 3000 50  0001 C CNN
	1    7600 3050
	1    0    0    -1  
$EndComp
NoConn ~ 9700 6450
NoConn ~ 9700 6550
$Comp
L Device:C C4
U 1 1 5D806284
P 1300 5400
F 0 "C4" H 1415 5446 50  0000 L CNN
F 1 "8pF" H 1415 5355 50  0000 L CNN
F 2 "Capacitor_SMD:C_0201_0603Metric" H 1338 5250 50  0001 C CNN
F 3 "~" H 1300 5400 50  0001 C CNN
	1    1300 5400
	1    0    0    -1  
$EndComp
$Comp
L Device:C C7
U 1 1 5D8070C6
P 1600 5400
F 0 "C7" H 1715 5446 50  0000 L CNN
F 1 "8pF" H 1715 5355 50  0000 L CNN
F 2 "Capacitor_SMD:C_0201_0603Metric" H 1638 5250 50  0001 C CNN
F 3 "~" H 1600 5400 50  0001 C CNN
	1    1600 5400
	1    0    0    -1  
$EndComp
$Comp
L power:GND #PWR06
U 1 1 5D808BA3
P 1300 5550
F 0 "#PWR06" H 1300 5300 50  0001 C CNN
F 1 "GND" H 1305 5377 50  0000 C CNN
F 2 "" H 1300 5550 50  0001 C CNN
F 3 "" H 1300 5550 50  0001 C CNN
	1    1300 5550
	1    0    0    -1  
$EndComp
$Comp
L power:GND #PWR08
U 1 1 5D808DDF
P 1600 5550
F 0 "#PWR08" H 1600 5300 50  0001 C CNN
F 1 "GND" H 1605 5377 50  0000 C CNN
F 2 "" H 1600 5550 50  0001 C CNN
F 3 "" H 1600 5550 50  0001 C CNN
	1    1600 5550
	1    0    0    -1  
$EndComp
$Comp
L power:GND #PWR010
U 1 1 5D83B33F
P 2300 1050
F 0 "#PWR010" H 2300 800 50  0001 C CNN
F 1 "GND" H 2305 877 50  0000 C CNN
F 2 "" H 2300 1050 50  0001 C CNN
F 3 "" H 2300 1050 50  0001 C CNN
	1    2300 1050
	1    0    0    -1  
$EndComp
$Comp
L Device:C C9
U 1 1 5D83B339
P 2300 900
AR Path="/5D83B339" Ref="C9"  Part="1" 
AR Path="/5D716E5A/5D83B339" Ref="C?"  Part="1" 
F 0 "C9" H 2185 854 50  0000 R CNN
F 1 "1uF" H 2185 945 50  0000 R CNN
F 2 "Capacitor_SMD:C_0201_0603Metric" H 2338 750 50  0001 C CNN
F 3 "~" H 2300 900 50  0001 C CNN
	1    2300 900 
	1    0    0    1   
$EndComp
$Comp
L power:GND #PWR09
U 1 1 5D8639D5
P 1800 2050
F 0 "#PWR09" H 1800 1800 50  0001 C CNN
F 1 "GND" H 1805 1877 50  0000 C CNN
F 2 "" H 1800 2050 50  0001 C CNN
F 3 "" H 1800 2050 50  0001 C CNN
	1    1800 2050
	1    0    0    -1  
$EndComp
$Comp
L Device:C C8
U 1 1 5D8639CF
P 1800 1900
AR Path="/5D8639CF" Ref="C8"  Part="1" 
AR Path="/5D716E5A/5D8639CF" Ref="C?"  Part="1" 
F 0 "C8" H 1685 1946 50  0000 R CNN
F 1 "0.1uF" H 1685 1855 50  0000 R CNN
F 2 "Capacitor_SMD:C_0201_0603Metric" H 1838 1750 50  0001 C CNN
F 3 "~" H 1800 1900 50  0001 C CNN
	1    1800 1900
	-1   0    0    -1  
$EndComp
$Comp
L Device:C C6
U 1 1 5D87E258
P 1550 1800
AR Path="/5D87E258" Ref="C6"  Part="1" 
AR Path="/5D716E5A/5D87E258" Ref="C?"  Part="1" 
F 0 "C6" H 1436 1754 50  0000 R CNN
F 1 "100pF" H 1436 1845 50  0000 R CNN
F 2 "Capacitor_SMD:C_0201_0603Metric" H 1588 1650 50  0001 C CNN
F 3 "~" H 1550 1800 50  0001 C CNN
	1    1550 1800
	1    0    0    1   
$EndComp
$Comp
L power:GND #PWR07
U 1 1 5D87E25E
P 1550 1950
F 0 "#PWR07" H 1550 1700 50  0001 C CNN
F 1 "GND" H 1555 1777 50  0000 C CNN
F 2 "" H 1550 1950 50  0001 C CNN
F 3 "" H 1550 1950 50  0001 C CNN
	1    1550 1950
	1    0    0    -1  
$EndComp
$Comp
L Device:C C3
U 1 1 5D89BAF0
P 1100 1700
AR Path="/5D89BAF0" Ref="C3"  Part="1" 
AR Path="/5D716E5A/5D89BAF0" Ref="C?"  Part="1" 
F 0 "C3" H 986 1654 50  0000 R CNN
F 1 "820pF" H 986 1745 50  0000 R CNN
F 2 "Capacitor_SMD:C_0201_0603Metric" H 1138 1550 50  0001 C CNN
F 3 "~" H 1100 1700 50  0001 C CNN
	1    1100 1700
	1    0    0    1   
$EndComp
$Comp
L power:GND #PWR05
U 1 1 5D89BAF6
P 1100 1850
F 0 "#PWR05" H 1100 1600 50  0001 C CNN
F 1 "GND" H 1105 1677 50  0000 C CNN
F 2 "" H 1100 1850 50  0001 C CNN
F 3 "" H 1100 1850 50  0001 C CNN
	1    1100 1850
	1    0    0    -1  
$EndComp
Text Label 3100 7800 0    50   ~ 0
VSS_PA
$Comp
L Device:L L1
U 1 1 5D8D37EA
P 1150 3100
F 0 "L1" V 1340 3100 50  0000 C CNN
F 1 "4.7nH" V 1249 3100 50  0000 C CNN
F 2 "Inductor_SMD:L_0603_1608Metric_Pad1.05x0.95mm_HandSolder" H 1150 3100 50  0001 C CNN
F 3 "~" H 1150 3100 50  0001 C CNN
	1    1150 3100
	0    -1   -1   0   
$EndComp
$Comp
L Device:C C1
U 1 1 5D8D8162
P 800 3250
F 0 "C1" H 915 3296 50  0000 L CNN
F 1 "0.5pF" H 915 3205 50  0000 L CNN
F 2 "Capacitor_SMD:C_0201_0603Metric" H 838 3100 50  0001 C CNN
F 3 "~" H 800 3250 50  0001 C CNN
	1    800  3250
	1    0    0    -1  
$EndComp
Text Label 1500 3550 2    50   ~ 0
VSS_PA
$Comp
L power:GND #PWR01
U 1 1 5D8DC882
P 800 3400
F 0 "#PWR01" H 800 3150 50  0001 C CNN
F 1 "GND" H 805 3227 50  0000 C CNN
F 2 "" H 800 3400 50  0001 C CNN
F 3 "" H 800 3400 50  0001 C CNN
	1    800  3400
	1    0    0    -1  
$EndComp
NoConn ~ 4300 5700
NoConn ~ 4300 5800
NoConn ~ 4300 5900
NoConn ~ 4300 6000
NoConn ~ 4300 6100
NoConn ~ 4300 6200
NoConn ~ 4300 6500
NoConn ~ 4300 6300
NoConn ~ 4300 6400
NoConn ~ 4300 5300
$Comp
L power:GND #PWR013
U 1 1 5D7AE05B
P 3000 7700
AR Path="/5D7AE05B" Ref="#PWR013"  Part="1" 
AR Path="/5D76ED37/5D7AE05B" Ref="#PWR?"  Part="1" 
F 0 "#PWR013" H 3000 7450 50  0001 C CNN
F 1 "GND" V 3005 7572 50  0000 R CNN
F 2 "" H 3000 7700 50  0001 C CNN
F 3 "" H 3000 7700 50  0001 C CNN
	1    3000 7700
	1    0    0    -1  
$EndComp
NoConn ~ 4300 6800
NoConn ~ 4300 7000
NoConn ~ 4300 5100
NoConn ~ 4300 3700
NoConn ~ 4300 7400
NoConn ~ 4300 7300
NoConn ~ 4300 5600
NoConn ~ 3200 2100
NoConn ~ 4300 4100
NoConn ~ 4300 3900
NoConn ~ 2800 2100
NoConn ~ 4300 4000
NoConn ~ 4300 5400
NoConn ~ 4300 6600
NoConn ~ 2300 2100
NoConn ~ 4300 6900
NoConn ~ 4300 7100
NoConn ~ 4300 5200
$Comp
L Device:L L2
U 1 1 5D9C586A
P 3250 750
F 0 "L2" V 3440 750 50  0000 C CNN
F 1 "10uH" V 3349 750 50  0000 C CNN
F 2 "Inductor_SMD:L_0603_1608Metric_Pad1.05x0.95mm_HandSolder" H 3250 750 50  0001 C CNN
F 3 "~" H 3250 750 50  0001 C CNN
	1    3250 750 
	0    -1   -1   0   
$EndComp
NoConn ~ 4300 2900
NoConn ~ 4300 2800
NoConn ~ 4300 2700
NoConn ~ 4300 2600
NoConn ~ 4300 2500
NoConn ~ 4300 2400
Text Label 4300 3400 0    50   ~ 0
S1
Text Label 4300 3500 0    50   ~ 0
S2
Text Label 4300 3600 0    50   ~ 0
S3
Entry Wire Line
	4300 3300 4400 3400
Entry Wire Line
	4300 3400 4400 3500
Entry Wire Line
	4300 3500 4400 3600
Entry Wire Line
	4300 3600 4400 3700
Wire Wire Line
	8550 2950 8500 2950
Wire Wire Line
	8500 2950 8500 3350
Wire Wire Line
	9550 2850 9750 2850
Wire Wire Line
	9750 2850 9750 2950
Wire Wire Line
	9750 3250 9750 3350
Wire Wire Line
	9750 2850 9750 2650
Connection ~ 9750 2850
Wire Wire Line
	1300 4700 1300 5100
Wire Wire Line
	1600 5100 1600 5250
Connection ~ 1600 5100
Wire Wire Line
	1300 5100 1300 5250
Connection ~ 1300 5100
Wire Wire Line
	2200 1750 1800 1750
Wire Wire Line
	2400 1650 1550 1650
Wire Wire Line
	2600 1550 1100 1550
Wire Wire Line
	1000 3100 800  3100
Wire Wire Line
	800  3100 800  2600
Connection ~ 800  3100
Wire Wire Line
	1500 3400 1500 3550
Wire Wire Line
	2600 2100 2600 1550
Wire Wire Line
	4300 3000 4450 3000
Wire Wire Line
	3100 7700 3100 7800
Wire Wire Line
	2400 2100 2400 1650
Wire Wire Line
	2200 2100 2200 1750
Wire Wire Line
	1700 4700 1300 4700
Wire Wire Line
	4300 4300 4500 4300
Wire Wire Line
	1500 6800 1700 6800
Wire Wire Line
	4500 4200 4300 4200
Wire Wire Line
	1500 6600 1700 6600
Wire Wire Line
	1500 6700 1700 6700
Wire Wire Line
	1700 5100 1600 5100
Wire Wire Line
	2500 750  2300 750 
Wire Wire Line
	3400 750  3400 2100
Wire Wire Line
	4400 6700 4300 6700
Connection ~ 2500 750 
Wire Wire Line
	2700 1000 2700 2100
Connection ~ 2700 1000
Wire Wire Line
	2700 1000 2850 1000
Wire Wire Line
	2500 750  2500 1000
Wire Wire Line
	2500 1000 2500 2100
Wire Wire Line
	2700 1000 2500 1000
Connection ~ 2500 1000
$Comp
L Device:C C10
U 1 1 5D9FBC4F
P 2850 1150
AR Path="/5D9FBC4F" Ref="C10"  Part="1" 
AR Path="/5D716E5A/5D9FBC4F" Ref="C?"  Part="1" 
F 0 "C10" H 2735 1196 50  0000 R CNN
F 1 "47nF" H 2735 1105 50  0000 R CNN
F 2 "Capacitor_SMD:C_0201_0603Metric" H 2888 1000 50  0001 C CNN
F 3 "~" H 2850 1150 50  0001 C CNN
	1    2850 1150
	-1   0    0    -1  
$EndComp
$Comp
L power:GND #PWR012
U 1 1 5D9FBC49
P 2850 1300
F 0 "#PWR012" H 2850 1050 50  0001 C CNN
F 1 "GND" H 2855 1127 50  0000 C CNN
F 2 "" H 2850 1300 50  0001 C CNN
F 3 "" H 2850 1300 50  0001 C CNN
	1    2850 1300
	1    0    0    -1  
$EndComp
Wire Wire Line
	3100 750  2500 750 
Connection ~ 5250 2850
Wire Wire Line
	5250 2850 5250 2950
$Comp
L power:+3V0 #PWR017
U 1 1 5DCA9A50
P 5250 2850
F 0 "#PWR017" H 5250 2700 50  0001 C CNN
F 1 "+3V0" H 5265 3023 50  0000 C CNN
F 2 "" H 5250 2850 50  0001 C CNN
F 3 "" H 5250 2850 50  0001 C CNN
	1    5250 2850
	1    0    0    -1  
$EndComp
$Comp
L power:GND #PWR020
U 1 1 5DCB8114
P 6450 5300
F 0 "#PWR020" H 6450 5050 50  0001 C CNN
F 1 "GND" H 6455 5127 50  0000 C CNN
F 2 "" H 6450 5300 50  0001 C CNN
F 3 "" H 6450 5300 50  0001 C CNN
	1    6450 5300
	1    0    0    -1  
$EndComp
Wire Wire Line
	6350 5000 6450 5000
Wire Wire Line
	6450 5000 6450 5250
Wire Wire Line
	5750 5200 5750 5250
Wire Wire Line
	5750 5250 5850 5250
Connection ~ 6450 5250
Wire Wire Line
	6450 5250 6450 5300
Wire Wire Line
	5850 5200 5850 5250
Connection ~ 5850 5250
Wire Wire Line
	5850 5250 5950 5250
Wire Wire Line
	5950 5200 5950 5250
Connection ~ 5950 5250
Wire Wire Line
	5950 5250 6450 5250
$Comp
L power:+3V0 #PWR018
U 1 1 5DCC9902
P 5600 4150
F 0 "#PWR018" H 5600 4000 50  0001 C CNN
F 1 "+3V0" H 5615 4323 50  0000 C CNN
F 2 "" H 5600 4150 50  0001 C CNN
F 3 "" H 5600 4150 50  0001 C CNN
	1    5600 4150
	1    0    0    -1  
$EndComp
Wire Wire Line
	5600 4150 5850 4150
Wire Wire Line
	5950 4150 5950 4200
Wire Wire Line
	5850 4150 5850 4200
Connection ~ 5850 4150
Wire Wire Line
	5850 4150 5950 4150
Entry Wire Line
	5350 4700 5450 4600
Entry Wire Line
	5350 4800 5450 4700
Entry Wire Line
	5350 4900 5450 4800
NoConn ~ 4300 3100
Text Label 5450 4600 2    50   ~ 0
A0
Text Label 5450 4700 2    50   ~ 0
A1
Text Label 5450 4800 2    50   ~ 0
A2
Wire Bus Line
	6450 4850 6700 4850
Wire Bus Line
	6700 4850 6700 5700
Wire Bus Line
	6700 5700 5350 5700
$Comp
L power:PWR_FLAG #FLG01
U 1 1 5DD2A5A7
P 1500 3550
F 0 "#FLG01" H 1500 3625 50  0001 C CNN
F 1 "PWR_FLAG" H 1500 3723 50  0000 C CNN
F 2 "" H 1500 3550 50  0001 C CNN
F 3 "~" H 1500 3550 50  0001 C CNN
	1    1500 3550
	-1   0    0    1   
$EndComp
$Comp
L Device:R R8
U 1 1 5D7C350F
P 9250 5150
AR Path="/5D7C350F" Ref="R8"  Part="1" 
AR Path="/5D76ED37/5D7C350F" Ref="R?"  Part="1" 
F 0 "R8" V 9043 5150 50  0000 C CNN
F 1 "470" V 9134 5150 50  0000 C CNN
F 2 "Resistor_SMD:R_0402_1005Metric" V 9180 5150 50  0001 C CNN
F 3 "~" H 9250 5150 50  0001 C CNN
	1    9250 5150
	0    1    1    0   
$EndComp
Text Label 8450 5150 2    50   ~ 0
NRESET
Text Label 4300 3300 0    50   ~ 0
S0
NoConn ~ 4300 3200
Wire Wire Line
	9700 4650 9500 4650
Wire Wire Line
	9700 6350 9400 6350
Wire Wire Line
	9700 6050 9400 6050
Wire Wire Line
	9700 5750 9400 5750
Wire Wire Line
	9700 5450 9400 5450
Wire Wire Line
	9700 5150 9400 5150
$Sheet
S 9700 4550 550  2050
U 5D716E5A
F0 "DAPLink" 50
F1 "daplink.sch" 50
F2 "NRESET" O L 9700 5150 50 
F3 "SWCLK" O L 9700 5450 50 
F4 "SWDIO" O L 9700 5750 50 
F5 "SWO" O L 9700 6450 50 
F6 "TDI" O L 9700 6550 50 
F7 "TXD" O L 9700 6050 50 
F8 "RXD" O L 9700 6350 50 
F9 "D-" O L 9700 4750 50 
F10 "D+" O L 9700 4650 50 
$EndSheet
Text Label 9100 6050 2    50   ~ 0
TXD
$Comp
L Device:R R11
U 1 1 5D7D202D
P 9250 6050
AR Path="/5D7D202D" Ref="R11"  Part="1" 
AR Path="/5D76ED37/5D7D202D" Ref="R?"  Part="1" 
F 0 "R11" V 9043 6050 50  0000 C CNN
F 1 "470" V 9134 6050 50  0000 C CNN
F 2 "Resistor_SMD:R_0402_1005Metric" V 9180 6050 50  0001 C CNN
F 3 "~" H 9250 6050 50  0001 C CNN
	1    9250 6050
	0    1    1    0   
$EndComp
$Comp
L Device:R R10
U 1 1 5D7D091B
P 9250 5750
AR Path="/5D7D091B" Ref="R10"  Part="1" 
AR Path="/5D76ED37/5D7D091B" Ref="R?"  Part="1" 
F 0 "R10" V 9043 5750 50  0000 C CNN
F 1 "470" V 9134 5750 50  0000 C CNN
F 2 "Resistor_SMD:R_0402_1005Metric" V 9180 5750 50  0001 C CNN
F 3 "~" H 9250 5750 50  0001 C CNN
	1    9250 5750
	0    1    1    0   
$EndComp
Text Label 9100 5750 2    50   ~ 0
SWDIO
Text Label 9100 5450 2    50   ~ 0
SWCLK
$Comp
L Device:R R9
U 1 1 5D7CE93A
P 9250 5450
AR Path="/5D7CE93A" Ref="R9"  Part="1" 
AR Path="/5D76ED37/5D7CE93A" Ref="R?"  Part="1" 
F 0 "R9" V 9043 5450 50  0000 C CNN
F 1 "470" V 9134 5450 50  0000 C CNN
F 2 "Resistor_SMD:R_0402_1005Metric" V 9180 5450 50  0001 C CNN
F 3 "~" H 9250 5450 50  0001 C CNN
	1    9250 5450
	0    1    1    0   
$EndComp
Connection ~ 8600 5150
Wire Wire Line
	8600 5150 8450 5150
Wire Wire Line
	8600 5150 9100 5150
Wire Wire Line
	9500 4400 9500 4650
Wire Wire Line
	9250 4750 9650 4750
Entry Wire Line
	6350 4700 6450 4600
Entry Wire Line
	6350 4600 6450 4500
Text Label 6350 4700 0    50   ~ 0
A4
Text Label 6350 4600 0    50   ~ 0
A3
$Comp
L Sensor_Motion:LIS2DE12 U2
U 1 1 5DCB66DC
P 5850 4700
F 0 "U2" H 5900 5381 50  0000 C CNN
F 1 "LIS2DE12" H 5900 5290 50  0000 C CNN
F 2 "Package_LGA:LGA-12_2x2mm_P0.5mm" H 6000 5250 50  0001 L CNN
F 3 "https://www.st.com/resource/en/datasheet/lis2DE12.pdf" H 5500 4700 50  0001 C CNN
	1    5850 4700
	1    0    0    -1  
$EndComp
$Comp
L Device:R R6
U 1 1 5D360E24
P 9100 4400
F 0 "R6" V 8893 4400 50  0000 C CNN
F 1 "33" V 8984 4400 50  0000 C CNN
F 2 "Resistor_SMD:R_0402_1005Metric" V 9030 4400 50  0001 C CNN
F 3 "~" H 9100 4400 50  0001 C CNN
	1    9100 4400
	0    1    1    0   
$EndComp
$Comp
L Device:R R7
U 1 1 5D3616E2
P 9100 4750
F 0 "R7" V 8893 4750 50  0000 C CNN
F 1 "33" V 8984 4750 50  0000 C CNN
F 2 "Resistor_SMD:R_0402_1005Metric" V 9030 4750 50  0001 C CNN
F 3 "~" H 9100 4750 50  0001 C CNN
	1    9100 4750
	0    1    1    0   
$EndComp
Text Label 8950 4400 2    50   ~ 0
D+
Text Label 8950 4750 2    50   ~ 0
D-
$Comp
L Device:C C2
U 1 1 5D420857
P 9350 4250
F 0 "C2" H 9465 4296 50  0000 L CNN
F 1 "18pF" H 9465 4205 50  0000 L CNN
F 2 "Capacitor_SMD:C_0201_0603Metric" H 9388 4100 50  0001 C CNN
F 3 "~" H 9350 4250 50  0001 C CNN
	1    9350 4250
	1    0    0    -1  
$EndComp
$Comp
L Device:C C25
U 1 1 5D42227D
P 9650 4250
F 0 "C25" H 9765 4296 50  0000 L CNN
F 1 "18pF" H 9765 4205 50  0000 L CNN
F 2 "Capacitor_SMD:C_0201_0603Metric" H 9688 4100 50  0001 C CNN
F 3 "~" H 9650 4250 50  0001 C CNN
	1    9650 4250
	1    0    0    -1  
$EndComp
Wire Wire Line
	9650 4400 9650 4750
Connection ~ 9650 4750
Wire Wire Line
	9650 4750 9700 4750
$Comp
L power:GND #PWR0102
U 1 1 5D42647D
P 9350 4100
F 0 "#PWR0102" H 9350 3850 50  0001 C CNN
F 1 "GND" H 9355 3927 50  0000 C CNN
F 2 "" H 9350 4100 50  0001 C CNN
F 3 "" H 9350 4100 50  0001 C CNN
	1    9350 4100
	-1   0    0    1   
$EndComp
Wire Wire Line
	9350 4100 9650 4100
Wire Wire Line
	9250 4400 9350 4400
Connection ~ 9350 4100
Connection ~ 9350 4400
Wire Wire Line
	9350 4400 9500 4400
Wire Wire Line
	5450 4500 5200 4500
$Comp
L Device:R R4
U 1 1 5D7AE00B
P 8600 5000
AR Path="/5D7AE00B" Ref="R4"  Part="1" 
AR Path="/5D76ED37/5D7AE00B" Ref="R?"  Part="1" 
F 0 "R4" H 8670 5046 50  0000 L CNN
F 1 "100K" H 8670 4955 50  0000 L CNN
F 2 "Resistor_SMD:R_0402_1005Metric" V 8530 5000 50  0001 C CNN
F 3 "~" H 8600 5000 50  0001 C CNN
	1    8600 5000
	1    0    0    -1  
$EndComp
$Comp
L power:+3V0 #PWR011
U 1 1 5DCA2E8A
P 3000 1700
F 0 "#PWR011" H 3000 1550 50  0001 C CNN
F 1 "+3V0" H 3015 1873 50  0000 C CNN
F 2 "" H 3000 1700 50  0001 C CNN
F 3 "" H 3000 1700 50  0001 C CNN
	1    3000 1700
	1    0    0    -1  
$EndComp
$Comp
L power:GND #PWR0104
U 1 1 5D51BFB5
P 5200 4500
F 0 "#PWR0104" H 5200 4250 50  0001 C CNN
F 1 "GND" V 5205 4372 50  0000 R CNN
F 2 "" H 5200 4500 50  0001 C CNN
F 3 "" H 5200 4500 50  0001 C CNN
	1    5200 4500
	0    1    1    0   
$EndComp
$Comp
L power:+3V0 #PWR0106
U 1 1 5D53204C
P 8600 4850
F 0 "#PWR0106" H 8600 4700 50  0001 C CNN
F 1 "+3V0" H 8615 5023 50  0000 C CNN
F 2 "" H 8600 4850 50  0001 C CNN
F 3 "" H 8600 4850 50  0001 C CNN
	1    8600 4850
	1    0    0    -1  
$EndComp
Wire Wire Line
	4300 3800 4450 3800
Text Label 4450 3800 0    50   ~ 0
VIBRATION
Wire Wire Line
	3000 1700 3000 2100
NoConn ~ 3500 2100
NoConn ~ 3100 2100
$Comp
L MCU_Nordic:nRF52840 U1
U 1 1 5D7AE08A
P 3000 4900
AR Path="/5D7AE08A" Ref="U1"  Part="1" 
AR Path="/5D76ED37/5D7AE08A" Ref="U?"  Part="1" 
F 0 "U1" H 3000 2011 50  0000 C CNN
F 1 "nRF52840" H 3000 1920 50  0000 C CNN
F 2 "Package_DFN_QFN:Nordic_AQFN-73-1EP_7x7mm_P0.5mm" H 3000 2000 50  0001 C CNN
F 3 "http://infocenter.nordicsemi.com/topic/com.nordic.infocenter.nrf52/dita/nrf52/chips/nrf52840.html" H 2350 6800 50  0001 C CNN
	1    3000 4900
	1    0    0    -1  
$EndComp
Wire Wire Line
	7900 2850 8150 2850
Wire Wire Line
	8150 2850 8150 2650
Connection ~ 8150 3050
Wire Wire Line
	8150 2850 8550 2850
Connection ~ 8150 2850
Wire Wire Line
	8150 3050 8150 2850
Wire Wire Line
	8550 3050 8150 3050
$Comp
L power:+5V #PWR028
U 1 1 5D55EAE8
P 8150 2650
F 0 "#PWR028" H 8150 2500 50  0001 C CNN
F 1 "+5V" H 8165 2823 50  0000 C CNN
F 2 "" H 8150 2650 50  0001 C CNN
F 3 "" H 8150 2650 50  0001 C CNN
	1    8150 2650
	1    0    0    -1  
$EndComp
$Comp
L power:GND #PWR029
U 1 1 5D428ADE
P 8150 3350
F 0 "#PWR029" H 8150 3100 50  0001 C CNN
F 1 "GND" H 8155 3177 50  0000 C CNN
F 2 "" H 8150 3350 50  0001 C CNN
F 3 "" H 8150 3350 50  0001 C CNN
	1    8150 3350
	1    0    0    -1  
$EndComp
$Comp
L Device:C C14
U 1 1 5D428078
P 8150 3200
F 0 "C14" H 8265 3246 50  0000 L CNN
F 1 "10uF" H 8265 3155 50  0000 L CNN
F 2 "Capacitor_SMD:C_0402_1005Metric" H 8188 3050 50  0001 C CNN
F 3 "~" H 8150 3200 50  0001 C CNN
	1    8150 3200
	1    0    0    -1  
$EndComp
Wire Wire Line
	5250 2950 5600 2950
Wire Wire Line
	5250 2850 5600 2850
Text Label 4400 6700 0    50   ~ 0
SCREEN
Text Label 5450 3050 2    50   ~ 0
SCREEN
Wire Bus Line
	5500 3700 4400 3700
$Sheet
S 5600 2750 550  950 
U 5DB72E49
F0 "Screen" 50
F1 "screen.sch" 50
F2 "VDDIO" O L 5600 2850 50 
F3 "VDD" O L 5600 2950 50 
F4 "SCL" O L 5600 3250 50 
F5 "SDI" O L 5600 3350 50 
F6 "RS" O L 5600 3450 50 
F7 "CSB" O L 5600 3550 50 
F8 "SCREEN" I L 5600 3050 50 
$EndSheet
Entry Wire Line
	5600 3550 5500 3450
Entry Wire Line
	5600 3450 5500 3350
Entry Wire Line
	5600 3350 5500 3250
Entry Wire Line
	5600 3250 5500 3150
Text Label 5600 3250 2    50   ~ 0
S0
Text Label 5600 3350 2    50   ~ 0
S1
Text Label 5600 3450 2    50   ~ 0
S2
Text Label 5600 3550 2    50   ~ 0
S3
Wire Wire Line
	5600 3050 5450 3050
$Comp
L power:+3V0 #PWR0113
U 1 1 5D7EA125
P 10100 1550
F 0 "#PWR0113" H 10100 1400 50  0001 C CNN
F 1 "+3V0" H 10115 1723 50  0000 C CNN
F 2 "" H 10100 1550 50  0001 C CNN
F 3 "" H 10100 1550 50  0001 C CNN
	1    10100 1550
	1    0    0    -1  
$EndComp
Connection ~ 9900 1550
Wire Wire Line
	9900 1550 10100 1550
$Comp
L Device:C C11
U 1 1 5D7DE880
P 9900 1800
F 0 "C11" H 10015 1846 50  0000 L CNN
F 1 "10uF" H 10015 1755 50  0000 L CNN
F 2 "Capacitor_SMD:C_0402_1005Metric" H 9938 1650 50  0001 C CNN
F 3 "~" H 9900 1800 50  0001 C CNN
	1    9900 1800
	1    0    0    -1  
$EndComp
$Comp
L power:GND #PWR0111
U 1 1 5D7DE87A
P 9900 1950
F 0 "#PWR0111" H 9900 1700 50  0001 C CNN
F 1 "GND" H 9905 1777 50  0000 C CNN
F 2 "" H 9900 1950 50  0001 C CNN
F 3 "" H 9900 1950 50  0001 C CNN
	1    9900 1950
	1    0    0    -1  
$EndComp
Wire Wire Line
	9900 1650 9450 1650
Wire Wire Line
	9900 1550 9900 1650
Wire Wire Line
	9450 1550 9600 1550
$Comp
L Device:L L3
U 1 1 5D7C6C11
P 9750 1550
F 0 "L3" V 9940 1550 50  0000 C CNN
F 1 "10uH" V 9849 1550 50  0000 C CNN
F 2 "Inductor_SMD:L_0603_1608Metric_Pad1.05x0.95mm_HandSolder" H 9750 1550 50  0001 C CNN
F 3 "~" H 9750 1550 50  0001 C CNN
	1    9750 1550
	0    -1   -1   0   
$EndComp
$Comp
L power:+5V #PWR0103
U 1 1 5D3C0C00
P 8300 1150
F 0 "#PWR0103" H 8300 1000 50  0001 C CNN
F 1 "+5V" H 8315 1323 50  0000 C CNN
F 2 "" H 8300 1150 50  0001 C CNN
F 3 "" H 8300 1150 50  0001 C CNN
	1    8300 1150
	1    0    0    -1  
$EndComp
Wire Wire Line
	8300 1150 8300 1350
Connection ~ 8300 1150
$Comp
L Device:Q_PMOS_DGS Q3
U 1 1 5D3EFEDC
P 8500 1150
F 0 "Q3" H 8706 1196 50  0000 L CNN
F 1 "Q_PMOS_DGS" H 8706 1105 50  0000 L CNN
F 2 "Package_TO_SOT_SMD:SC-59_Handsoldering" H 8700 1250 50  0001 C CNN
F 3 "~" H 8500 1150 50  0001 C CNN
	1    8500 1150
	1    0    0    -1  
$EndComp
Connection ~ 8600 1350
Wire Wire Line
	8300 1350 8600 1350
$Comp
L power:+3.7V #PWR02
U 1 1 5D7AE084
P 8600 950
AR Path="/5D7AE084" Ref="#PWR02"  Part="1" 
AR Path="/5D76ED37/5D7AE084" Ref="#PWR?"  Part="1" 
F 0 "#PWR02" H 8600 800 50  0001 C CNN
F 1 "+3.7V" H 8615 1123 50  0000 C CNN
F 2 "" H 8600 950 50  0001 C CNN
F 3 "" H 8600 950 50  0001 C CNN
	1    8600 950 
	1    0    0    -1  
$EndComp
Wire Wire Line
	8600 1350 8600 1550
$Comp
L Regulator_Switching:TPS6223 U3
U 1 1 5D734CD5
P 9100 1650
F 0 "U3" H 9100 1975 50  0000 C CNN
F 1 "TPS6223" H 9100 1884 50  0000 C CNN
F 2 "Package_SON:USON6_1x1.5mm_P0.5mm" H 9100 1850 50  0001 C CNN
F 3 "" H 9100 1850 50  0001 C CNN
	1    9100 1650
	1    0    0    -1  
$EndComp
Wire Wire Line
	8600 1550 8750 1550
Connection ~ 8600 1550
Wire Wire Line
	8600 1550 8600 1650
Wire Wire Line
	8600 1650 8750 1650
Connection ~ 8600 1650
Wire Wire Line
	8600 1650 8600 1900
$Comp
L power:GND #PWR0110
U 1 1 5D73E60F
P 8750 1750
F 0 "#PWR0110" H 8750 1500 50  0001 C CNN
F 1 "GND" H 8755 1577 50  0000 C CNN
F 2 "" H 8750 1750 50  0001 C CNN
F 3 "" H 8750 1750 50  0001 C CNN
	1    8750 1750
	1    0    0    -1  
$EndComp
$Comp
L power:GND #PWR0105
U 1 1 5D73CD52
P 9450 1750
F 0 "#PWR0105" H 9450 1500 50  0001 C CNN
F 1 "GND" H 9455 1577 50  0000 C CNN
F 2 "" H 9450 1750 50  0001 C CNN
F 3 "" H 9450 1750 50  0001 C CNN
	1    9450 1750
	1    0    0    -1  
$EndComp
Text Notes 8850 950  0    50   ~ 0
use usb when connected\notherwise charge current is overused
Text Label 8600 1900 2    50   ~ 0
VDDH
$Comp
L power:GND #PWR0108
U 1 1 5D6B3977
P 4900 1900
F 0 "#PWR0108" H 4900 1650 50  0001 C CNN
F 1 "GND" H 4905 1727 50  0000 C CNN
F 2 "" H 4900 1900 50  0001 C CNN
F 3 "" H 4900 1900 50  0001 C CNN
	1    4900 1900
	1    0    0    -1  
$EndComp
$Comp
L power:+3V0 #PWR0109
U 1 1 5D6BD796
P 4900 1300
F 0 "#PWR0109" H 4900 1150 50  0001 C CNN
F 1 "+3V0" H 4915 1473 50  0000 C CNN
F 2 "" H 4900 1300 50  0001 C CNN
F 3 "" H 4900 1300 50  0001 C CNN
	1    4900 1300
	1    0    0    -1  
$EndComp
$Comp
L Device:Q_NMOS_DGS Q4
U 1 1 5D6BE012
P 4800 1500
F 0 "Q4" H 5006 1546 50  0000 L CNN
F 1 "Q_NMOS_DGS" H 5006 1455 50  0000 L CNN
F 2 "Package_TO_SOT_SMD:SC-59_Handsoldering" H 5000 1600 50  0001 C CNN
F 3 "~" H 4800 1500 50  0001 C CNN
	1    4800 1500
	1    0    0    -1  
$EndComp
Text Label 4600 1500 2    50   ~ 0
VIBRATION
$Comp
L Connector:Conn_01x01_Female J2
U 1 1 5D7FEF0B
P 5100 1700
F 0 "J2" H 5128 1726 50  0000 L CNN
F 1 "Conn_01x01_Female" H 5128 1635 50  0000 L CNN
F 2 "Connector_Wire:SolderWirePad_1x01_SMD_5x10mm" H 5100 1700 50  0001 C CNN
F 3 "~" H 5100 1700 50  0001 C CNN
	1    5100 1700
	1    0    0    -1  
$EndComp
$Comp
L Connector:Conn_01x01_Female J3
U 1 1 5D802502
P 5100 1900
F 0 "J3" H 5128 1926 50  0000 L CNN
F 1 "Conn_01x01_Female" H 5128 1835 50  0000 L CNN
F 2 "Connector_Wire:SolderWirePad_1x01_SMD_5x10mm" H 5128 1789 50  0001 L CNN
F 3 "~" H 5100 1900 50  0001 C CNN
	1    5100 1900
	1    0    0    -1  
$EndComp
Connection ~ 9900 1650
$Comp
L power:VDD #PWR0101
U 1 1 5D85101B
P 6150 1200
F 0 "#PWR0101" H 6150 1050 50  0001 C CNN
F 1 "VDD" H 6167 1373 50  0000 C CNN
F 2 "" H 6150 1200 50  0001 C CNN
F 3 "" H 6150 1200 50  0001 C CNN
	1    6150 1200
	1    0    0    -1  
$EndComp
Wire Wire Line
	5950 1500 6150 1500
Wire Wire Line
	6150 1500 6450 1500
Connection ~ 6150 1500
$Comp
L Device:R R1
U 1 1 5D851024
P 6150 1350
F 0 "R1" H 6220 1396 50  0000 L CNN
F 1 "100K" H 6220 1305 50  0000 L CNN
F 2 "Resistor_SMD:R_0603_1608Metric_Pad1.05x0.95mm_HandSolder" V 6080 1350 50  0001 C CNN
F 3 "~" H 6150 1350 50  0001 C CNN
	1    6150 1350
	1    0    0    -1  
$EndComp
Text Label 5950 1500 2    50   ~ 0
CHRG
$Comp
L Battery_Management:LTC4054L-4.2 U4
U 1 1 5D85102B
P 6850 1500
F 0 "U4" H 7294 1496 50  0000 L CNN
F 1 "LTC4054L-4.2" H 7294 1405 50  0000 L CNN
F 2 "Package_TO_SOT_SMD:TSOT-23-5" H 6850 1000 50  0001 C CNN
F 3 "https://www.analog.com/media/en/technical-documentation/data-sheets/4054l42fa.pdf" H 6850 1400 50  0001 C CNN
	1    6850 1500
	1    0    0    -1  
$EndComp
Connection ~ 7250 1500
Wire Wire Line
	6450 1600 6300 1600
Wire Wire Line
	7250 1500 8000 1500
Connection ~ 7250 1350
$Comp
L power:PWR_FLAG #FLG0103
U 1 1 5D851035
P 7250 1350
F 0 "#FLG0103" H 7250 1425 50  0001 C CNN
F 1 "PWR_FLAG" V 7250 1477 50  0000 L CNN
F 2 "" H 7250 1350 50  0001 C CNN
F 3 "~" H 7250 1350 50  0001 C CNN
	1    7250 1350
	0    1    1    0   
$EndComp
$Comp
L Device:Battery_Cell BT1
U 1 1 5D85103B
P 7250 1150
F 0 "BT1" H 7132 1154 50  0000 R CNN
F 1 "RJD3048ST1" H 7132 1245 50  0000 R CNN
F 2 "Battery:Battery_Illinois_Capacitor_RJD3048ST1" V 7250 1210 50  0001 C CNN
F 3 "~" V 7250 1210 50  0001 C CNN
	1    7250 1150
	-1   0    0    1   
$EndComp
Wire Wire Line
	7250 1500 7250 1350
$Comp
L power:GND #PWR0112
U 1 1 5D851042
P 7250 1050
F 0 "#PWR0112" H 7250 800 50  0001 C CNN
F 1 "GND" H 7255 877 50  0000 C CNN
F 2 "" H 7250 1050 50  0001 C CNN
F 3 "" H 7250 1050 50  0001 C CNN
	1    7250 1050
	-1   0    0    1   
$EndComp
$Comp
L power:+3.7V #PWR0120
U 1 1 5D851048
P 8000 1500
F 0 "#PWR0120" H 8000 1350 50  0001 C CNN
F 1 "+3.7V" H 8015 1673 50  0000 C CNN
F 2 "" H 8000 1500 50  0001 C CNN
F 3 "" H 8000 1500 50  0001 C CNN
	1    8000 1500
	1    0    0    -1  
$EndComp
Wire Wire Line
	6300 1600 6300 1900
$Comp
L power:+5V #PWR0121
U 1 1 5D85104F
P 6850 900
F 0 "#PWR0121" H 6850 750 50  0001 C CNN
F 1 "+5V" H 6865 1073 50  0000 C CNN
F 2 "" H 6850 900 50  0001 C CNN
F 3 "" H 6850 900 50  0001 C CNN
	1    6850 900 
	1    0    0    -1  
$EndComp
$Comp
L power:GND #PWR0122
U 1 1 5D851055
P 6300 2200
F 0 "#PWR0122" H 6300 1950 50  0001 C CNN
F 1 "GND" V 6305 2072 50  0000 R CNN
F 2 "" H 6300 2200 50  0001 C CNN
F 3 "" H 6300 2200 50  0001 C CNN
	1    6300 2200
	1    0    0    -1  
$EndComp
$Comp
L power:GND #PWR0123
U 1 1 5D85105B
P 6850 1900
F 0 "#PWR0123" H 6850 1650 50  0001 C CNN
F 1 "GND" V 6855 1772 50  0000 R CNN
F 2 "" H 6850 1900 50  0001 C CNN
F 3 "" H 6850 1900 50  0001 C CNN
	1    6850 1900
	1    0    0    -1  
$EndComp
$Comp
L Device:R R5
U 1 1 5D851061
P 6300 2050
F 0 "R5" H 6370 2096 50  0000 L CNN
F 1 "1k" H 6370 2005 50  0000 L CNN
F 2 "Resistor_SMD:R_0603_1608Metric_Pad1.05x0.95mm_HandSolder" V 6230 2050 50  0001 C CNN
F 3 "~" H 6300 2050 50  0001 C CNN
	1    6300 2050
	1    0    0    -1  
$EndComp
$Comp
L Device:Antenna AE1
U 1 1 5D86707A
P 800 2400
F 0 "AE1" H 880 2389 50  0000 L CNN
F 1 "Antenna" H 880 2298 50  0000 L CNN
F 2 "RF_Antenna:AMCA31-2R450G-S1F-T3" H 800 2400 50  0001 C CNN
F 3 "~" H 800 2400 50  0001 C CNN
	1    800  2400
	1    0    0    -1  
$EndComp
Connection ~ 1500 3100
Wire Wire Line
	1500 3100 1700 3100
Wire Wire Line
	1300 3100 1500 3100
$Comp
L Device:C C5
U 1 1 5D8D49E9
P 1500 3250
F 0 "C5" H 1615 3296 50  0000 L CNN
F 1 "0.8pF" H 1615 3205 50  0000 L CNN
F 2 "Capacitor_SMD:C_0201_0603Metric" H 1538 3100 50  0001 C CNN
F 3 "~" H 1500 3250 50  0001 C CNN
	1    1500 3250
	1    0    0    -1  
$EndComp
Wire Bus Line
	5350 4900 4400 4900
Entry Wire Line
	4300 4700 4400 4800
Entry Wire Line
	4300 4800 4400 4900
Text Label 4300 4800 0    50   ~ 0
A4
Text Label 4300 4700 0    50   ~ 0
A3
Text Label 4300 4600 0    50   ~ 0
A2
Text Label 4300 4500 0    50   ~ 0
A1
Text Label 4300 4400 0    50   ~ 0
A0
Entry Wire Line
	4300 4600 4400 4700
Entry Wire Line
	4300 4500 4400 4600
Entry Wire Line
	4300 4400 4400 4500
Connection ~ 5350 4900
Wire Bus Line
	5350 4900 5350 5700
NoConn ~ 4300 4900
NoConn ~ 4300 5000
$Comp
L Device:C C15
U 1 1 5D918ABD
P 3150 1850
AR Path="/5D918ABD" Ref="C15"  Part="1" 
AR Path="/5D716E5A/5D918ABD" Ref="C?"  Part="1" 
F 0 "C15" H 3035 1896 50  0000 R CNN
F 1 "0.1uF" H 3035 1805 50  0000 R CNN
F 2 "Capacitor_SMD:C_0201_0603Metric" H 3188 1700 50  0001 C CNN
F 3 "~" H 3150 1850 50  0001 C CNN
	1    3150 1850
	-1   0    0    -1  
$EndComp
Wire Wire Line
	3000 1700 3150 1700
Connection ~ 3000 1700
$Comp
L power:GND #PWR0124
U 1 1 5D91E80C
P 3150 2000
F 0 "#PWR0124" H 3150 1750 50  0001 C CNN
F 1 "GND" V 3155 1872 50  0000 R CNN
F 2 "" H 3150 2000 50  0001 C CNN
F 3 "" H 3150 2000 50  0001 C CNN
	1    3150 2000
	0    -1   -1   0   
$EndComp
$Comp
L Device:R R13
U 1 1 5DABA364
P 6850 1050
F 0 "R13" H 6920 1096 50  0000 L CNN
F 1 "1.5" H 6920 1005 50  0000 L CNN
F 2 "Resistor_SMD:R_0603_1608Metric_Pad1.05x0.95mm_HandSolder" V 6780 1050 50  0001 C CNN
F 3 "~" H 6850 1050 50  0001 C CNN
	1    6850 1050
	1    0    0    -1  
$EndComp
Wire Bus Line
	6450 4500 6450 4850
Wire Bus Line
	5350 4700 5350 4900
Wire Bus Line
	4400 3400 4400 3700
Wire Bus Line
	5500 3150 5500 3700
Wire Bus Line
	4400 4500 4400 4900
$EndSCHEMATC
